<?xml version="1.0" ?>
<!DOCTYPE svg  PUBLIC '-//W3C//DTD SVG 1.1//EN'  'http://www.w3.org/Graphics/SVG/1.1/DTD/svg11.dtd'><svg enable-background="new 0 0 48 48" id="Layer_1" version="1.1" viewBox="0 0 48 48" xml:space="preserve" xmlns="http://www.w3.org/2000/svg" xmlns:xlink="http://www.w3.org/1999/xlink"><g><g fill="#ed2f59"><path d="M42.2,40.5H5.8c-2.9,0-5.3-2.4-5.3-5.3V12.8c0-2.9,2.4-5.3,5.3-5.3h36.4c2.9,0,5.3,2.4,5.3,5.3v22.4    C47.5,38.1,45.1,40.5,42.2,40.5z M5.8,10.5c-1.3,0-2.3,1-2.3,2.3v22.4c0,1.3,1,2.3,2.3,2.3h36.4c1.3,0,2.3-1,2.3-2.3V12.8    c0-1.3-1-2.3-2.3-2.3H5.8z"/></g><g>
<path d="M45.9,30.5h-8.5c-3.8,0-6.9-2.9-6.9-6.5s3.1-6.5,6.9-6.5h8.5c0.9,0,1.6,0.7,1.6,1.6v9.8C47.5,29.8,46.8,30.5,45.9,30.5z     M37.4,20.5c-2.1,0-3.9,1.6-3.9,3.5s1.7,3.5,3.9,3.5h7.1v-7H37.4z" fill="#ed2f59"/></g><g>
<path d="M11.8,33v-2.2c-1.3,0-2.6-0.4-3.4-1L9,28.4c0.8,0.5,1.9,0.9,3.2,0.9c1.6,0,2.6-0.9,2.6-2.1c0-1.2-0.9-2-2.5-2.6    c-2.2-0.9-3.6-1.9-3.6-3.8c0-1.8,1.3-3.2,3.3-3.5V15h1.4v2.1c1.3,0,2.2,0.4,2.8,0.8l-0.5,1.4c-0.5-0.3-1.4-0.7-2.8-0.7    c-1.7,0-2.3,1-2.3,1.9c0,1.1,0.8,1.7,2.7,2.5c2.3,0.9,3.4,2.1,3.4,4c0,1.7-1.2,3.4-3.5,3.7V33H11.8z" fill="#ed2f59"/></g><g><ellipse cx="37.3" cy="24" rx="1.5" ry="1.4" fill="#ed2f59"/>
</g></g></svg>